
 projects/quiz-be15e/messages/3067253860144046172
 projects/quiz-be15e/messages/6328975764228704375
 projects/quiz-be15e/messages/4201050731455588295
 projects/quiz-be15e/messages/5128532056538239012
 projects/quiz-be15e/messages/5393793156799489349
 projects/quiz-be15e/messages/4409840124598415114
 projects/quiz-be15e/messages/6007740884880188393
 projects/quiz-be15e/messages/2949258458700688477
 projects/quiz-be15e/messages/3568103296492868034
 projects/quiz-be15e/messages/4841829816666051324
 projects/quiz-be15e/messages/5177781730498075810
 projects/quiz-be15e/messages/2269119947441013339
 projects/quiz-be15e/messages/7019237763630172864
 projects/quiz-be15e/messages/6830056327067911923
 projects/quiz-be15e/messages/11600847082246498
 projects/quiz-be15e/messages/7317861115905513067
 projects/quiz-be15e/messages/3612468669979703884
 projects/quiz-be15e/messages/3944891997740566024
 projects/quiz-be15e/messages/5214060250073945549
 projects/quiz-be15e/messages/5187076706548683218
 projects/quiz-be15e/messages/7810125111059942316
 projects/quiz-be15e/messages/1869053517574975424
 projects/quiz-be15e/messages/1153317639521443178
 projects/quiz-be15e/messages/16411441727702830
 projects/quiz-be15e/messages/2294871555779035488
 projects/quiz-be15e/messages/5881039106121780730
 projects/quiz-be15e/messages/8534347995920640645
 projects/quiz-be15e/messages/7867733574649928616
 projects/quiz-be15e/messages/674240764116532224
 projects/quiz-be15e/messages/8688179970342484498
 projects/quiz-be15e/messages/6686294390643301793
 projects/quiz-be15e/messages/6392709608522537047
 projects/quiz-be15e/messages/2299190591673139981
 projects/quiz-be15e/messages/3186441447215845140
 projects/quiz-be15e/messages/1741334223921487510
 projects/quiz-be15e/messages/2283692398209582726
 projects/quiz-be15e/messages/3573347175072447420
 projects/quiz-be15e/messages/7052707412809080150
 projects/quiz-be15e/messages/6041305783368718173
 projects/quiz-be15e/messages/6952336907334736206
 projects/quiz-be15e/messages/2177508839661407666
 projects/quiz-be15e/messages/5123324425147721993
 projects/quiz-be15e/messages/5784066186164358399
 projects/quiz-be15e/messages/2052163611190936686
 projects/quiz-be15e/messages/3188519159349693605
 projects/quiz-be15e/messages/5918768813224895143
 projects/quiz-be15e/messages/7428741639522916573
 projects/quiz-be15e/messages/3673205680446482993
 projects/quiz-be15e/messages/5417890300231293706
 projects/quiz-be15e/messages/590372333231632779
 projects/quiz-be15e/messages/6905092075580652279
 projects/quiz-be15e/messages/4244601392332213728
 projects/quiz-be15e/messages/2924006301680454916
 projects/quiz-be15e/messages/2683891270075000103
 projects/quiz-be15e/messages/6969511482509965080
 projects/quiz-be15e/messages/93006512976596448
 projects/quiz-be15e/messages/6468407655320217283
 projects/quiz-be15e/messages/6845455460959472301
 projects/quiz-be15e/messages/8169488005441533130
 projects/quiz-be15e/messages/7340100535362810372
 projects/quiz-be15e/messages/9076274239410175029
 projects/quiz-be15e/messages/4904300350921088842
 projects/quiz-be15e/messages/7012371845564140551
 projects/quiz-be15e/messages/4285116569619539240
 projects/quiz-be15e/messages/7591435064454970667
 projects/quiz-be15e/messages/6809714737392648083
 projects/quiz-be15e/messages/966493902082101268
 projects/quiz-be15e/messages/9004392009301048802
 projects/quiz-be15e/messages/5404583907966335085
 projects/quiz-be15e/messages/7720814910891813046
 projects/quiz-be15e/messages/6706727457003239620
 projects/quiz-be15e/messages/5640662950931701052
 projects/quiz-be15e/messages/2565552279060741243
 projects/quiz-be15e/messages/7559061516429044536
 projects/quiz-be15e/messages/4884896337605209595
 projects/quiz-be15e/messages/8096344062744607132